%YAML 1.1
%TAG !u! tag:unity3d.com,2011:
--- !u!1 &3338603461504844166
GameObject:
  m_ObjectHideFlags: 0
  m_CorrespondingSourceObject: {fileID: 0}
  m_PrefabInstance: {fileID: 0}
  m_PrefabAsset: {fileID: 0}
  serializedVersion: 6
  m_Component:
  - component: {fileID: 3338603461504844165}
  m_Layer: 5
  m_Name: UILayerGame
  m_TagString: Untagged
  m_Icon: {fileID: 0}
  m_NavMeshLayer: 0
  m_StaticEditorFlags: 0
  m_IsActive: 1
--- !u!224 &3338603461504844165
RectTransform:
  m_ObjectHideFlags: 0
  m_CorrespondingSourceObject: {fileID: 0}
  m_PrefabInstance: {fileID: 0}
  m_PrefabAsset: {fileID: 0}
  m_GameObject: {fileID: 3338603461504844166}
  m_LocalRotation: {x: 0, y: 0, z: 0, w: 1}
  m_LocalPosition: {x: 0, y: 0, z: 0}
  m_LocalScale: {x: 1, y: 1, z: 1}
  m_Children:
  - {fileID: 3338603462106102967}
  - {fileID: 6861002855631372597}
  m_Father: {fileID: 0}
  m_RootOrder: 0
  m_LocalEulerAnglesHint: {x: 0, y: 0, z: 0}
  m_AnchorMin: {x: 0, y: 0}
  m_AnchorMax: {x: 1, y: 1}
  m_AnchoredPosition: {x: 0, y: 0}
  m_SizeDelta: {x: 0, y: 0}
  m_Pivot: {x: 0.5, y: 0.5}
--- !u!1001 &3338603461833293617
PrefabInstance:
  m_ObjectHideFlags: 0
  serializedVersion: 2
  m_Modification:
    m_TransformParent: {fileID: 3338603461504844165}
    m_Modifications:
    - target: {fileID: 8170153791668043268, guid: 0d230cc8be529a542a08cb878ab14b18, type: 3}
      propertyPath: m_Pivot.x
      value: 0
      objectReference: {fileID: 0}
    - target: {fileID: 8170153791668043268, guid: 0d230cc8be529a542a08cb878ab14b18, type: 3}
      propertyPath: m_Pivot.y
      value: 0
      objectReference: {fileID: 0}
    - target: {fileID: 8170153791668043268, guid: 0d230cc8be529a542a08cb878ab14b18, type: 3}
      propertyPath: m_RootOrder
      value: 1
      objectReference: {fileID: 0}
    - target: {fileID: 8170153791668043268, guid: 0d230cc8be529a542a08cb878ab14b18, type: 3}
      propertyPath: m_AnchorMax.x
      value: 0
      objectReference: {fileID: 0}
    - target: {fileID: 8170153791668043268, guid: 0d230cc8be529a542a08cb878ab14b18, type: 3}
      propertyPath: m_AnchorMax.y
      value: 0
      objectReference: {fileID: 0}
    - target: {fileID: 8170153791668043268, guid: 0d230cc8be529a542a08cb878ab14b18, type: 3}
      propertyPath: m_AnchorMin.x
      value: 0
      objectReference: {fileID: 0}
    - target: {fileID: 8170153791668043268, guid: 0d230cc8be529a542a08cb878ab14b18, type: 3}
      propertyPath: m_AnchorMin.y
      value: 0
      objectReference: {fileID: 0}
    - target: {fileID: 8170153791668043268, guid: 0d230cc8be529a542a08cb878ab14b18, type: 3}
      propertyPath: m_SizeDelta.x
      value: 1920
      objectReference: {fileID: 0}
    - target: {fileID: 8170153791668043268, guid: 0d230cc8be529a542a08cb878ab14b18, type: 3}
      propertyPath: m_SizeDelta.y
      value: 1080
      objectReference: {fileID: 0}
    - target: {fileID: 8170153791668043268, guid: 0d230cc8be529a542a08cb878ab14b18, type: 3}
      propertyPath: m_LocalPosition.x
      value: 0
      objectReference: {fileID: 0}
    - target: {fileID: 8170153791668043268, guid: 0d230cc8be529a542a08cb878ab14b18, type: 3}
      propertyPath: m_LocalPosition.y
      value: 0
      objectReference: {fileID: 0}
    - target: {fileID: 8170153791668043268, guid: 0d230cc8be529a542a08cb878ab14b18, type: 3}
      propertyPath: m_LocalPosition.z
      value: 0
      objectReference: {fileID: 0}
    - target: {fileID: 8170153791668043268, guid: 0d230cc8be529a542a08cb878ab14b18, type: 3}
      propertyPath: m_LocalRotation.w
      value: 1
      objectReference: {fileID: 0}
    - target: {fileID: 8170153791668043268, guid: 0d230cc8be529a542a08cb878ab14b18, type: 3}
      propertyPath: m_LocalRotation.x
      value: -0
      objectReference: {fileID: 0}
    - target: {fileID: 8170153791668043268, guid: 0d230cc8be529a542a08cb878ab14b18, type: 3}
      propertyPath: m_LocalRotation.y
      value: -0
      objectReference: {fileID: 0}
    - target: {fileID: 8170153791668043268, guid: 0d230cc8be529a542a08cb878ab14b18, type: 3}
      propertyPath: m_LocalRotation.z
      value: -0
      objectReference: {fileID: 0}
    - target: {fileID: 8170153791668043268, guid: 0d230cc8be529a542a08cb878ab14b18, type: 3}
      propertyPath: m_AnchoredPosition.x
      value: 0
      objectReference: {fileID: 0}
    - target: {fileID: 8170153791668043268, guid: 0d230cc8be529a542a08cb878ab14b18, type: 3}
      propertyPath: m_AnchoredPosition.y
      value: 0
      objectReference: {fileID: 0}
    - target: {fileID: 8170153791668043268, guid: 0d230cc8be529a542a08cb878ab14b18, type: 3}
      propertyPath: m_LocalEulerAnglesHint.x
      value: 0
      objectReference: {fileID: 0}
    - target: {fileID: 8170153791668043268, guid: 0d230cc8be529a542a08cb878ab14b18, type: 3}
      propertyPath: m_LocalEulerAnglesHint.y
      value: 0
      objectReference: {fileID: 0}
    - target: {fileID: 8170153791668043268, guid: 0d230cc8be529a542a08cb878ab14b18, type: 3}
      propertyPath: m_LocalEulerAnglesHint.z
      value: 0
      objectReference: {fileID: 0}
    - target: {fileID: 8170153791668043269, guid: 0d230cc8be529a542a08cb878ab14b18, type: 3}
      propertyPath: m_Name
      value: Floating Joystick
      objectReference: {fileID: 0}
    m_RemovedComponents: []
  m_SourcePrefab: {fileID: 100100000, guid: 0d230cc8be529a542a08cb878ab14b18, type: 3}
--- !u!224 &6861002855631372597 stripped
RectTransform:
  m_CorrespondingSourceObject: {fileID: 8170153791668043268, guid: 0d230cc8be529a542a08cb878ab14b18, type: 3}
  m_PrefabInstance: {fileID: 3338603461833293617}
  m_PrefabAsset: {fileID: 0}
--- !u!1001 &4735178357887213665
PrefabInstance:
  m_ObjectHideFlags: 0
  serializedVersion: 2
  m_Modification:
    m_TransformParent: {fileID: 3338603461504844165}
    m_Modifications:
    - target: {fileID: 8062465363902012625, guid: c19f9f5b87c917a4bab04599304b4ea1, type: 3}
      propertyPath: m_Name
      value: UIWidgetLifeBar
      objectReference: {fileID: 0}
    - target: {fileID: 8062465363902012630, guid: c19f9f5b87c917a4bab04599304b4ea1, type: 3}
      propertyPath: m_Pivot.x
      value: 0
      objectReference: {fileID: 0}
    - target: {fileID: 8062465363902012630, guid: c19f9f5b87c917a4bab04599304b4ea1, type: 3}
      propertyPath: m_Pivot.y
      value: 0
      objectReference: {fileID: 0}
    - target: {fileID: 8062465363902012630, guid: c19f9f5b87c917a4bab04599304b4ea1, type: 3}
      propertyPath: m_RootOrder
      value: 0
      objectReference: {fileID: 0}
    - target: {fileID: 8062465363902012630, guid: c19f9f5b87c917a4bab04599304b4ea1, type: 3}
      propertyPath: m_AnchorMax.x
      value: 0
      objectReference: {fileID: 0}
    - target: {fileID: 8062465363902012630, guid: c19f9f5b87c917a4bab04599304b4ea1, type: 3}
      propertyPath: m_AnchorMax.y
      value: 0
      objectReference: {fileID: 0}
    - target: {fileID: 8062465363902012630, guid: c19f9f5b87c917a4bab04599304b4ea1, type: 3}
      propertyPath: m_AnchorMin.x
      value: 0
      objectReference: {fileID: 0}
    - target: {fileID: 8062465363902012630, guid: c19f9f5b87c917a4bab04599304b4ea1, type: 3}
      propertyPath: m_AnchorMin.y
      value: 0
      objectReference: {fileID: 0}
    - target: {fileID: 8062465363902012630, guid: c19f9f5b87c917a4bab04599304b4ea1, type: 3}
      propertyPath: m_SizeDelta.x
      value: 500
      objectReference: {fileID: 0}
    - target: {fileID: 8062465363902012630, guid: c19f9f5b87c917a4bab04599304b4ea1, type: 3}
      propertyPath: m_SizeDelta.y
      value: 100
      objectReference: {fileID: 0}
    - target: {fileID: 8062465363902012630, guid: c19f9f5b87c917a4bab04599304b4ea1, type: 3}
      propertyPath: m_LocalPosition.x
      value: 0
      objectReference: {fileID: 0}
    - target: {fileID: 8062465363902012630, guid: c19f9f5b87c917a4bab04599304b4ea1, type: 3}
      propertyPath: m_LocalPosition.y
      value: 0
      objectReference: {fileID: 0}
    - target: {fileID: 8062465363902012630, guid: c19f9f5b87c917a4bab04599304b4ea1, type: 3}
      propertyPath: m_LocalPosition.z
      value: 0
      objectReference: {fileID: 0}
    - target: {fileID: 8062465363902012630, guid: c19f9f5b87c917a4bab04599304b4ea1, type: 3}
      propertyPath: m_LocalRotation.w
      value: 1
      objectReference: {fileID: 0}
    - target: {fileID: 8062465363902012630, guid: c19f9f5b87c917a4bab04599304b4ea1, type: 3}
      propertyPath: m_LocalRotation.x
      value: -0
      objectReference: {fileID: 0}
    - target: {fileID: 8062465363902012630, guid: c19f9f5b87c917a4bab04599304b4ea1, type: 3}
      propertyPath: m_LocalRotation.y
      value: -0
      objectReference: {fileID: 0}
    - target: {fileID: 8062465363902012630, guid: c19f9f5b87c917a4bab04599304b4ea1, type: 3}
      propertyPath: m_LocalRotation.z
      value: -0
      objectReference: {fileID: 0}
    - target: {fileID: 8062465363902012630, guid: c19f9f5b87c917a4bab04599304b4ea1, type: 3}
      propertyPath: m_AnchoredPosition.x
      value: 40
      objectReference: {fileID: 0}
    - target: {fileID: 8062465363902012630, guid: c19f9f5b87c917a4bab04599304b4ea1, type: 3}
      propertyPath: m_AnchoredPosition.y
      value: 30
      objectReference: {fileID: 0}
    - target: {fileID: 8062465363902012630, guid: c19f9f5b87c917a4bab04599304b4ea1, type: 3}
      propertyPath: m_LocalEulerAnglesHint.x
      value: 0
      objectReference: {fileID: 0}
    - target: {fileID: 8062465363902012630, guid: c19f9f5b87c917a4bab04599304b4ea1, type: 3}
      propertyPath: m_LocalEulerAnglesHint.y
      value: 0
      objectReference: {fileID: 0}
    - target: {fileID: 8062465363902012630, guid: c19f9f5b87c917a4bab04599304b4ea1, type: 3}
      propertyPath: m_LocalEulerAnglesHint.z
      value: 0
      objectReference: {fileID: 0}
    - target: {fileID: 8062465364459554045, guid: c19f9f5b87c917a4bab04599304b4ea1, type: 3}
      propertyPath: m_FontData.m_Font
      value: 
      objectReference: {fileID: 12800000, guid: 98d5ca7366502ed4ab5fe8f43e2ba3e0, type: 3}
    - target: {fileID: 8062465364459554045, guid: c19f9f5b87c917a4bab04599304b4ea1, type: 3}
      propertyPath: m_FontData.m_FontStyle
      value: 0
      objectReference: {fileID: 0}
    m_RemovedComponents: []
  m_SourcePrefab: {fileID: 100100000, guid: c19f9f5b87c917a4bab04599304b4ea1, type: 3}
--- !u!224 &3338603462106102967 stripped
RectTransform:
  m_CorrespondingSourceObject: {fileID: 8062465363902012630, guid: c19f9f5b87c917a4bab04599304b4ea1, type: 3}
  m_PrefabInstance: {fileID: 4735178357887213665}
  m_PrefabAsset: {fileID: 0}
